[
    {
      "id":1,
      "project_name":"DMS Patra Jasa",
      "img_src":"/static/images/portfolio/img-confidential.jpg",
      "img_src_mobile":"/static/images/portfolio/img-confidential.jpg",
      "link":"/blog/2016/dms-patra",
      "company_name":"PT. Prima Integrasi Solusindo under PT. MasterSystem Infotama"
    },
    {
      "id":2,
      "project_name":"DMS Mandiri CRO Operation",
      "img_src":"/static/images/portfolio/img-confidential.jpg",
      "img_src_mobile":"/static/images/portfolio/img-confidential.jpg",
      "link":"/blog/2016/dms-mandiri-cro",
      "company_name":"PT. Prima Integrasi Solusindo under PT. MasterSystem Infotama"
    }
   
    
  ]